%YAML 1.1
%TAG !u! tag:unity3d.com,2011:
--- !u!1045 &1
EditorBuildSettings:
  m_ObjectHideFlags: 0
  serializedVersion: 2
  m_Scenes:
  - enabled: 0
    path: Assets/Scenes/SampleScene.unity
    guid: 99c9720ab356a0642a771bea13969a05
  - enabled: 0
    path: Assets/-pitchIdeas-/scenes/elementControl_test1.unity
    guid: ec54d8027cb354b4e8da05bdbac7b4d4
  - enabled: 1
    path: Assets/-pitchIdeas-/scenes/elementControl_test2.unity
    guid: f92f38d71a0308044a7d013e0d5c63f3
  m_configObjects: {}
